<?xml version="1.0" encoding="UTF-8" standalone="no"?>
<!-- Created with Inkscape (http://www.inkscape.org/) -->

<svg
   xmlns:dc="http://purl.org/dc/elements/1.1/"
   xmlns:cc="http://creativecommons.org/ns#"
   xmlns:rdf="http://www.w3.org/1999/02/22-rdf-syntax-ns#"
   xmlns:svg="http://www.w3.org/2000/svg"
   xmlns="http://www.w3.org/2000/svg"
   xmlns:sodipodi="http://sodipodi.sourceforge.net/DTD/sodipodi-0.dtd"
   xmlns:inkscape="http://www.inkscape.org/namespaces/inkscape"
   width="128"
   height="128"
   viewBox="0 0 33.866666 33.866666"
   version="1.1"
   id="svg8"
   inkscape:version="0.92.3 (2405546, 2018-03-11)"
   sodipodi:docname="silicate_crystals.svg">
  <defs
     id="defs2" />
  <sodipodi:namedview
     id="base"
     pagecolor="#ffffff"
     bordercolor="#666666"
     borderopacity="1.0"
     inkscape:pageopacity="0.0"
     inkscape:pageshadow="2"
     inkscape:zoom="7.9195959"
     inkscape:cx="52.811699"
     inkscape:cy="61.522904"
     inkscape:document-units="mm"
     inkscape:current-layer="layer2"
     showgrid="true"
     inkscape:window-width="2560"
     inkscape:window-height="1329"
     inkscape:window-x="0"
     inkscape:window-y="0"
     inkscape:window-maximized="1"
     inkscape:snap-grids="false"
     units="px"
     width="100px">
    <inkscape:grid
       type="xygrid"
       id="grid3713"
       units="px"
       spacingx="0.26458333"
       spacingy="0.26458333" />
  </sodipodi:namedview>
  <metadata
     id="metadata5">
    <rdf:RDF>
      <cc:Work
         rdf:about="">
        <dc:format>image/svg+xml</dc:format>
        <dc:type
           rdf:resource="http://purl.org/dc/dcmitype/StillImage" />
        <dc:title></dc:title>
      </cc:Work>
    </rdf:RDF>
  </metadata>
  <g
     inkscape:label="Border"
     inkscape:groupmode="layer"
     id="layer1"
     transform="translate(0,-263.13334)"
     sodipodi:insensitive="true">
    <rect
       id="rect3715"
       width="29.104166"
       height="29.104176"
       x="2.6458333"
       y="265.25"
       style="fill:#feffff;fill-opacity:1;stroke:#804000;stroke-width:1.58749998;stroke-linejoin:round;stroke-miterlimit:4;stroke-dasharray:none;stroke-opacity:1" />
  </g>
  <g
     inkscape:groupmode="layer"
     id="layer2"
     inkscape:label="Icon Content">
    <g
       id="g6178"
       transform="matrix(0.57416309,0,0,0.53284538,27.945168,7.5783821)"
       style="fill:#fbffe7;fill-opacity:1">
      <path
         inkscape:connector-curvature="0"
         id="path6154"
         d="m -11.90625,10.054167 v 7.9375 l 1.322917,1.322916 h 2.6458331 l 1.3229167,-1.322916 V 3.4395836 L -7.9374999,4.7625002 H -10.583333 L -11.90625,3.4395836 Z"
         style="fill:#fbffe7;fill-opacity:1;stroke:#000000;stroke-width:0.26458332;stroke-linecap:butt;stroke-linejoin:round;stroke-miterlimit:4;stroke-dasharray:none;stroke-opacity:1" />
      <path
         inkscape:connector-curvature="0"
         id="path6156"
         d="m -10.583333,4.7625002 v 14.5520828 0 0"
         style="fill:#fbffe7;fill-opacity:1;stroke:#000000;stroke-width:0.26458332;stroke-linecap:butt;stroke-linejoin:round;stroke-miterlimit:4;stroke-dasharray:none;stroke-opacity:1" />
      <path
         inkscape:connector-curvature="0"
         id="path6158"
         d="M -7.9374999,4.7625002 V 19.314583"
         style="fill:#fbffe7;fill-opacity:1;stroke:#000000;stroke-width:0.26458332;stroke-linecap:butt;stroke-linejoin:round;stroke-miterlimit:4;stroke-dasharray:none;stroke-opacity:1" />
      <path
         inkscape:connector-curvature="0"
         id="path6160"
         d="m -11.90625,3.4395836 1.322917,-2.64583319"
         style="fill:#fbffe7;fill-opacity:1;stroke:#000000;stroke-width:0.26458332;stroke-linecap:butt;stroke-linejoin:round;stroke-miterlimit:4;stroke-dasharray:none;stroke-opacity:1" />
      <path
         sodipodi:nodetypes="ccccccc"
         inkscape:connector-curvature="0"
         id="path6162"
         d="m -10.583333,0.79375041 0.8279953,0.83352929 h 1.2361215 l 0.6347653,-0.63476513 -0.668174,-0.73499119 -1.2027129,-1e-8 z"
         style="fill:#fbffe7;fill-opacity:1;stroke:#000000;stroke-width:0.26458332;stroke-linecap:butt;stroke-linejoin:round;stroke-miterlimit:4;stroke-dasharray:none;stroke-opacity:1" />
      <path
         inkscape:connector-curvature="0"
         id="path6164"
         d="M -9.7553377,1.6272797 -10.583333,4.7625002"
         style="fill:#fbffe7;fill-opacity:1;stroke:#000000;stroke-width:0.26458332;stroke-linecap:butt;stroke-linejoin:round;stroke-miterlimit:4;stroke-dasharray:none;stroke-opacity:1" />
      <path
         inkscape:connector-curvature="0"
         id="path6166"
         d="m -8.519216,1.6272797 0.5817161,3.1352205"
         style="fill:#fbffe7;fill-opacity:1;stroke:#000000;stroke-width:0.26458332;stroke-linecap:butt;stroke-linejoin:round;stroke-miterlimit:4;stroke-dasharray:none;stroke-opacity:1" />
      <path
         inkscape:connector-curvature="0"
         id="path6168"
         d="M -7.8844507,0.99251457 -6.614583,3.4395836"
         style="fill:#fbffe7;fill-opacity:1;stroke:#000000;stroke-width:0.26458332;stroke-linecap:butt;stroke-linejoin:round;stroke-miterlimit:4;stroke-dasharray:none;stroke-opacity:1" />
    </g>
    <g
       id="g6178-8"
       transform="matrix(0.64588059,0,0,0.61942287,16.838948,8.9624602)"
       style="fill:#fbffe7;fill-opacity:1">
      <path
         inkscape:connector-curvature="0"
         id="path6154-5"
         d="m -11.90625,10.054167 v 7.9375 l 1.322917,1.322916 h 2.6458331 l 1.3229167,-1.322916 V 3.4395836 L -7.9374999,4.7625002 H -10.583333 L -11.90625,3.4395836 Z"
         style="fill:#fbffe7;stroke:#000000;stroke-width:0.26458332;stroke-linecap:butt;stroke-linejoin:round;stroke-miterlimit:4;stroke-dasharray:none;stroke-opacity:1;fill-opacity:1" />
      <path
         inkscape:connector-curvature="0"
         id="path6156-1"
         d="m -10.583333,4.7625002 v 14.5520828 0 0"
         style="fill:#fbffe7;stroke:#000000;stroke-width:0.26458332;stroke-linecap:butt;stroke-linejoin:round;stroke-miterlimit:4;stroke-dasharray:none;stroke-opacity:1;fill-opacity:1" />
      <path
         inkscape:connector-curvature="0"
         id="path6158-2"
         d="M -7.9374999,4.7625002 V 19.314583"
         style="fill:#fbffe7;stroke:#000000;stroke-width:0.26458332;stroke-linecap:butt;stroke-linejoin:round;stroke-miterlimit:4;stroke-dasharray:none;stroke-opacity:1;fill-opacity:1" />
      <path
         inkscape:connector-curvature="0"
         id="path6160-9"
         d="m -11.90625,3.4395836 1.322917,-2.64583319"
         style="fill:#fbffe7;stroke:#000000;stroke-width:0.26458332;stroke-linecap:butt;stroke-linejoin:round;stroke-miterlimit:4;stroke-dasharray:none;stroke-opacity:1;fill-opacity:1" />
      <path
         sodipodi:nodetypes="ccccccc"
         inkscape:connector-curvature="0"
         id="path6162-7"
         d="m -10.583333,0.79375041 0.8279953,0.83352929 h 1.2361215 l 0.6347653,-0.63476513 -0.668174,-0.73499119 -1.2027129,-1e-8 z"
         style="fill:#fbffe7;stroke:#000000;stroke-width:0.26458332;stroke-linecap:butt;stroke-linejoin:round;stroke-miterlimit:4;stroke-dasharray:none;stroke-opacity:1;fill-opacity:1" />
      <path
         inkscape:connector-curvature="0"
         id="path6164-3"
         d="M -9.7553377,1.6272797 -10.583333,4.7625002"
         style="fill:#fbffe7;stroke:#000000;stroke-width:0.26458332;stroke-linecap:butt;stroke-linejoin:round;stroke-miterlimit:4;stroke-dasharray:none;stroke-opacity:1;fill-opacity:1" />
      <path
         inkscape:connector-curvature="0"
         id="path6166-8"
         d="m -8.519216,1.6272797 0.5817161,3.1352205"
         style="fill:#fbffe7;stroke:#000000;stroke-width:0.26458332;stroke-linecap:butt;stroke-linejoin:round;stroke-miterlimit:4;stroke-dasharray:none;stroke-opacity:1;fill-opacity:1" />
      <path
         inkscape:connector-curvature="0"
         id="path6168-0"
         d="M -7.8844507,0.99251457 -6.614583,3.4395836"
         style="fill:#fbffe7;stroke:#000000;stroke-width:0.26458332;stroke-linecap:butt;stroke-linejoin:round;stroke-miterlimit:4;stroke-dasharray:none;stroke-opacity:1;fill-opacity:1" />
    </g>
    <g
       id="g6178-9"
       transform="matrix(0.71869207,0,0,0.66246447,23.994498,15.306513)"
       style="fill:#fbffe7;fill-opacity:1">
      <path
         inkscape:connector-curvature="0"
         id="path6154-2"
         d="m -11.90625,10.054167 v 7.9375 l 1.322917,1.322916 h 2.6458331 l 1.3229167,-1.322916 V 3.4395836 L -7.9374999,4.7625002 H -10.583333 L -11.90625,3.4395836 Z"
         style="fill:#fbffe7;fill-opacity:1;stroke:#000000;stroke-width:0.26458332;stroke-linecap:butt;stroke-linejoin:round;stroke-miterlimit:4;stroke-dasharray:none;stroke-opacity:1" />
      <path
         inkscape:connector-curvature="0"
         id="path6156-3"
         d="m -10.583333,4.7625002 v 14.5520828 0 0"
         style="fill:#fbffe7;fill-opacity:1;stroke:#000000;stroke-width:0.26458332;stroke-linecap:butt;stroke-linejoin:round;stroke-miterlimit:4;stroke-dasharray:none;stroke-opacity:1" />
      <path
         inkscape:connector-curvature="0"
         id="path6158-1"
         d="M -7.9374999,4.7625002 V 19.314583"
         style="fill:#fbffe7;fill-opacity:1;stroke:#000000;stroke-width:0.26458332;stroke-linecap:butt;stroke-linejoin:round;stroke-miterlimit:4;stroke-dasharray:none;stroke-opacity:1" />
      <path
         inkscape:connector-curvature="0"
         id="path6160-8"
         d="m -11.90625,3.4395836 1.322917,-2.64583319"
         style="fill:#fbffe7;fill-opacity:1;stroke:#000000;stroke-width:0.26458332;stroke-linecap:butt;stroke-linejoin:round;stroke-miterlimit:4;stroke-dasharray:none;stroke-opacity:1" />
      <path
         sodipodi:nodetypes="ccccccc"
         inkscape:connector-curvature="0"
         id="path6162-74"
         d="m -10.583333,0.79375041 0.8279953,0.83352929 h 1.2361215 l 0.6347653,-0.63476513 -0.668174,-0.73499119 -1.2027129,-1e-8 z"
         style="fill:#fbffe7;fill-opacity:1;stroke:#000000;stroke-width:0.26458332;stroke-linecap:butt;stroke-linejoin:round;stroke-miterlimit:4;stroke-dasharray:none;stroke-opacity:1" />
      <path
         inkscape:connector-curvature="0"
         id="path6164-1"
         d="M -9.7553377,1.6272797 -10.583333,4.7625002"
         style="fill:#fbffe7;fill-opacity:1;stroke:#000000;stroke-width:0.26458332;stroke-linecap:butt;stroke-linejoin:round;stroke-miterlimit:4;stroke-dasharray:none;stroke-opacity:1" />
      <path
         inkscape:connector-curvature="0"
         id="path6166-6"
         d="m -8.519216,1.6272797 0.5817161,3.1352205"
         style="fill:#fbffe7;fill-opacity:1;stroke:#000000;stroke-width:0.26458332;stroke-linecap:butt;stroke-linejoin:round;stroke-miterlimit:4;stroke-dasharray:none;stroke-opacity:1" />
      <path
         inkscape:connector-curvature="0"
         id="path6168-3"
         d="M -7.8844507,0.99251457 -6.614583,3.4395836"
         style="fill:#fbffe7;fill-opacity:1;stroke:#000000;stroke-width:0.26458332;stroke-linecap:butt;stroke-linejoin:round;stroke-miterlimit:4;stroke-dasharray:none;stroke-opacity:1" />
    </g>
  </g>
</svg>
